{
    "_globals": {
        "_components": {
            "_accordion": {
                "ariaRegion": "هذا الجزء عبارة عن أكورديون يتألف من لوحات محتوى قابلة للطي بداخلها النص الذي يتم عرضه. حدد عناوين العناصر لعرض أو إخفاء لوحات المحتوى هذه.",
                "instruction": ""
            },
            "_gmcq": {
                "ariaRegion": "هذا الجزء عبارة عن سؤال رسومي متعدد الاختيارات. بعد الانتهاء من تحديد أحد الاختيارات، حدد زر إرسال أدناه.",
                "instruction": ""
            },
            "_hotgraphic": {
                "ariaRegion": "يتيح لك الجزء التالي تحديد النقاط القابلة للنقر داخل الصورة. حدد نقطة قابلة للنقر عليها لفتح نافذة منبثقة تحتوي على صورة ونص معروض. حدد الزر إغلاق لإغلاق النافذة المنبثقة.",
                "ariaPoupupLabel": "نافذة Hotgraphic"
            },
            "_matching": {
                "ariaRegion": "يتطلب جزء السؤال هذا تحديد الإجابة المطابقة من القائمة المنسدلة التالية. بعد الانتهاء من تحديد إجاباتك، حدد زر إرسال.",
                "instruction": ""
            },
            "_mcq": {
                "ariaRegion": "هذا الجزء عبارة عن سؤال متعدد الاختيارات. بعد الانتهاء من تحديد أحد الاختيارات، حدد زر إرسال أدناه",
                "instruction": ""
            },
            "_media": {
                "ariaRegion": "هذا الجزء يتألف من وسائط ويتم فيه تشغيل مقطع فيديو. حدد الزر تشغيل / إيقاف مؤقت للمشاهدة أو الاستماع. وبدلاً من ذلك، يمكنك تحديد الرابط التالي للاطلاع على النص.",
                "transcriptButton": "وبدلاً من ذلك، يمكنك تحديد الرابط التالي للاطلاع على النص.",
                "instruction": ""
            },
            "_narrative": {
                "ariaRegion": "يعرض هذا الجزء معرض صور مصحوبة بنصوص. استخدم عناصر الانتقال إلى الأمام وإلى الخلف لتصفح المادة المقدمة.",
                "instruction": ""
            },
            "_phaser": {
                "ariaRegion": ""
            },
            "_slider": {
                "ariaRegion": "يتطلب هذا الجزء الإجابة عن السؤال بتحديد القيمة المناسبة. بعد تحديد القيمة، حدد زر إرسال أدناه.",
                "instruction": ""
            },
            "_textinput": {
                "ariaRegion": "يتطلب جزء السؤال هذا إدخال إجابتك في مربع النص الموجود أمامك. عند الانتهاء من الإجابة عن السؤال، حدد زر إرسال أدناه."
            },
            "_mcq-truefalse": {
                "ariaRegion": "هذا الجزء عبارة عن سؤال متعدد الاختيارات. بعد الانتهاء من تحديد أحد الاختيارات، حدد زر إرسال أدناه"
            },
            "_blank": {
                "ariaRegion": "",
                "instruction": ""
            },
            "_graphic": {
                "ariaRegion": "",
                "instruction": ""
            },
            "_hotGraphic": {
                "ariaRegion": "يتيح لك الجزء التالي تحديد النقاط القابلة للنقر داخل الصورة. حدد نقطة قابلة للنقر عليها لفتح نافذة منبثقة تحتوي على صورة ونص معروض. حدد الزر إغلاق لإغلاق النافذة المنبثقة.",
                "instruction": ""
            },
            "_text": {
                "ariaRegion": "",
                "instruction": ""
            },
            "_textInput": {
                "ariaRegion": "يتطلب جزء السؤال هذا إدخال إجابتك في مربع النص الموجود أمامك. عند الانتهاء من الإجابة عن السؤال، حدد زر إرسال أدناه.",
                "instruction": ""
            }
        },
        "_extensions": {
            "_pageLevelProgress": {
                "pageLevelProgress": "أقسام الصفحة",
                "pageLevelProgressIndicatorBar": "شريط التقدم. حدد هذا الشريط لعرض تقدمك الحالي، وحدد أحد العناصر للانتقال إليه. ها قد انتهيت ",
                "pageLevelProgressEnd": "لقد وصلت إلى نهاية قائمة أقسام الصفحة.",
                "optionalContent": "محتوى اختياري"
            }
        },
        "_menu": {
            "_boxmenu": {
                "ariaRegion": "القائمة",
                "menuItem": "عنصر القائمة.",
                "menuEnd": "لقد وصلت إلى نهاية القائمة."
            }
        },
        "_accessibility": {
            "_accessibilityToggleTextOn": "هل تريد تشغيل إمكانية الوصول؟",
            "_accessibilityToggleTextOff": "هل تريد إيقاف تشغيل إمكانية الوصول؟",
            "_accessibilityInstructions": {
                "touch": "تعليمات الاستخدام. استخدم تحريك لليسار لعرض التالي. استخدم تحريك لليمين لعرض السابق. استخدم الضغط المزدوج للتحديد. استخدم التحريك للأعلى بأصبعين للانتقال إلى أعلى الصفحة.",
                "notouch": "تعليمات الاستخدام. استخدم مفتاح tab لعرض التالي. استخدم مفتاحي shift tab لعرض السابق. استخدم مفتاح enter للتحديد. استخدم مفتاح escape للانتقال إلى أعلى الصفحة.",
                "ipad": "تعليمات الاستخدام لشاشات اللمس. استخدم تحريك لليسار لعرض التالي. استخدم تحريك لليمين لعرض السابق. استخدم الضغط المزدوج للتحديد. استخدم التحريك للأعلى بأصبعين للانتقال إلى أعلى الصفحة. تعليمات الاستخدام للوحات المفاتيح. استخدم السهم لليسار لعرض التالي. استخدم السهم لليمين لعرض السابق. استخدم سهمي للأعلى وللأسفل معًا للتحديد."
            },
            "_ariaLabels": {
                "navigation": "شريط التنقل داخل الدورة التدريبية",
                "menuLoaded": "تم تحميل القائمة.",
                "menu": "القائمة",
                "page": "الصفحة",
                "pageLoaded": "تم تحميل الصفحة.",
                "pageEnd": "لقد وصلت إلى نهاية الصفحة.",
                "previous": "عودة",
                "navigationBack": "عودة للخلف",
                "navigationDrawer": "فتح موارد الدورة التدريبية.",
                "close": "إغلاق",
                "closeDrawer": "إغلاق القائمة الجانبية",
                "closeResources": "إغلاق الموارد",
                "resourcesEnd": "لقد وصلت إلى نهاية قائمة الموارد.",
                "drawerBack": "عودة إلى القائمة الجانبية",
                "drawer": "أعلى القائمة الجانبية",
                "closePopup": "إغلاق النافذة المنبثقة",
                "next": "التالي",
                "done": "تم",
                "complete": "مكتمل",
                "incomplete": "غير مكتمل",
                "incorrect": "غير صحيح",
                "correct": "صحيح",
                "locked": "مغلق",
                "accessibilityToggleButton": "بتحديد هذا الزر، يمكنك اختيار تشغيل إمكانية الوصول أو إيقاف تشغيلها.",
                "feedbackPopUp": "تم فتح النافذة المنبثقة.",
                "menuBack": "عودة إلى القائمة",
                "visited": "تمت زيارتها"
            }
        }
    },
    "_id": "course",
    "_type": "course",
    "title": "خيار الشراء \"الوصول وتكرار الظهور\" على فيسبوك",
    "displayTitle": "خيار الشراء \"الوصول وتكرار الظهور\" على فيسبوك",
    "body": "",
    "_buttons": {
        "_submit": {
            "buttonText": "إرسال",
            "ariaLabel": "أرسل إجابتك بالنقر هنا."
        },
        "_reset": {
            "buttonText": "إعادة تعيين",
            "ariaLabel": "أعد تعيين السؤال بالنقر هنا."
        },
        "_showCorrectAnswer": {
            "buttonText": "الإجابة الصحيحة",
            "ariaLabel": "أظهر الإجابة الصحيحة بالنقر هنا."
        },
        "_hideCorrectAnswer": {
            "buttonText": "إجابتي",
            "ariaLabel": "أظهر الإجابة التي قدمتها بالنقر هنا."
        },
        "_showFeedback": {
            "buttonText": "إظهار الملاحظات",
            "ariaLabel": "اعرض الملاحظات الخاصة بالسؤال مرة أخرى بالنقر هنا."
        },
        "remainingAttemptsText": "محاولات متبقية",
        "remainingAttemptText": "محاولة أخيرة",
        "disabledAriaLabel": "تم تعطيل هذا الزر في الوقت الحالي."
    },
    "_latestTrackingId": 46,
    "_pageLevelProgress": {
        "_isEnabled": true,
        "_altText": "من الأجزاء مكتملة في هذه الصفحة."
    },
    "_bookmarking": {
        "_isEnabled": false,
        "_level": "block",
        "title": "وضع علامات مرجعية",
        "body": "هل ترغب في المتابعة من حيث توقفت؟",
        "_buttons": {
            "yes": "نعم",
            "no": "لا"
        }
    },
    "_analytics": {
        "_isEnabled": true
    }
}